# 3ds Max Wavefront OBJ Exporter v0.97b - (c)2007 guruware
# File Created: 10.09.2018 19:23:57

newmtl _maket_v4101___Default
	Ns 10.0000
	Ni 1.5000
	d 1.0000
	Tr 0.0000
	Tf 1.0000 1.0000 1.0000 
	illum 2
	Ka 0.8118 0.8118 0.8118
	Kd 0.8118 0.8118 0.8118
	Ks 0.0000 0.0000 0.0000
	Ke 0.0000 0.0000 0.0000

newmtl _maket_v41glazz
	Ns 10.0000
	Ni 1.5000
	d 0.2800
	Tr 0.7200
	Tf 0.2800 0.2800 0.2800 
	illum 2
	Ka 0.5882 0.5882 0.5882
	Kd 0.5882 0.5882 0.5882
	Ks 0.0000 0.0000 0.0000
	Ke 0.0000 0.0000 0.0000

newmtl _maket_v41refrej_texture
	Ns 41.0000
	Ni 1.5000
	d 1.0000
	Tr 0.0000
	Tf 1.0000 1.0000 1.0000 
	illum 2
	Ka 0.5880 0.5880 0.5880
	Kd 0.5880 0.5880 0.5880
	Ks 0.7830 0.7830 0.7830
	Ke 0.0000 0.0000 0.0000
	map_Ka D:\leopold\a-work\Senya\export2\v.5\refrej_texture.png
	map_Kd D:\leopold\a-work\Senya\export2\v.5\refrej_texture.png

newmtl _maket_v4104___Defaultg
	Ns 10.0000
	Ni 1.5000
	d 1.0000
	Tr 0.0000
	Tf 1.0000 1.0000 1.0000 
	illum 2
	Ka 0.5882 0.5882 0.5882
	Kd 0.5882 0.5882 0.5882
	Ks 0.0000 0.0000 0.0000
	Ke 0.0000 0.0000 0.0000

newmtl _maket_v41black_glass
	Ns 80.0000
	Ni 1.5000
	d 0.8600
	Tr 0.1400
	Tf 0.8600 0.8600 0.8600 
	illum 2
	Ka 0.0000 0.0000 0.0039
	Kd 0.0000 0.0000 0.0000
	Ks 0.5938 0.5938 0.5938
	Ke 0.0000 0.0000 0.0000

newmtl _maket_v4110___Default
	Ns 10.0000
	Ni 1.5000
	d 1.0000
	Tr 0.0000
	Tf 1.0000 1.0000 1.0000 
	illum 2
	Ka 0.5882 0.5882 0.5882
	Kd 0.5882 0.5882 0.5882
	Ks 0.0000 0.0000 0.0000
	Ke 0.0000 0.0000 0.0000

newmtl _maket_v4116___Default
	Ns 50.0000
	Ni 1.5000
	d 1.0000
	Tr 0.0000
	Tf 1.0000 1.0000 1.0000 
	illum 2
	Ka 0.8549 0.8549 0.7882
	Kd 0.8549 0.8549 0.7882
	Ks 0.3600 0.3600 0.3600
	Ke 0.0000 0.0000 0.0000

newmtl _maket_v4122___Default
	Ns 43.0000
	Ni 1.5000
	d 1.0000
	Tr 0.0000
	Tf 1.0000 1.0000 1.0000 
	illum 2
	Ka 0.4353 0.4353 0.4353
	Kd 0.4353 0.4353 0.4353
	Ks 0.6570 0.6570 0.6570
	Ke 0.0000 0.0000 0.0000

newmtl _maket_v41refrej_black
	Ns 65.0000
	Ni 1.5000
	d 1.0000
	Tr 0.0000
	Tf 1.0000 1.0000 1.0000 
	illum 2
	Ka 0.0039 0.0039 0.0039
	Kd 0.0039 0.0039 0.0039
	Ks 1.5480 1.5480 1.5480
	Ke 0.0000 0.0000 0.0000

newmtl _maket_v4120___Default
	Ns 10.0000
	Ni 1.5000
	d 1.0000
	Tr 0.0000
	Tf 1.0000 1.0000 1.0000 
	illum 2
	Ka 0.5882 0.5882 0.5882
	Kd 0.5882 0.5882 0.5882
	Ks 0.3600 0.3600 0.3600
	Ke 0.0000 0.0000 0.0000
	map_Ka D:\leopold\a-work\Senya\export2\v.5\coffee_mashine_map.png
	map_Kd D:\leopold\a-work\Senya\export2\v.5\coffee_mashine_map.png

newmtl _maket_v4121___Default
	Ns 10.0000
	Ni 1.5000
	d 1.0000
	Tr 0.0000
	Tf 1.0000 1.0000 1.0000 
	illum 2
	Ka 0.0000 0.1333 0.0000
	Kd 0.0000 0.1333 0.0000
	Ks 0.0000 0.0000 0.0000
	Ke 0.0000 0.0000 0.0000

newmtl _maket_v4101___tech
	Ns 60.0000
	Ni 1.5000
	d 1.0000
	Tr 0.0000
	Tf 1.0000 1.0000 1.0000 
	illum 2
	Ka 0.1137 0.1137 0.1137
	Kd 0.1137 0.1137 0.1137
	Ks 0.6210 0.6210 0.6210
	Ke 0.0000 0.0000 0.0000

newmtl white_logow
	Ns 10.0000
	Ni 1.5000
	d 1.0000
	Tr 0.0000
	Tf 1.0000 1.0000 1.0000 
	illum 2
	Ka 0.8941 0.8941 0.8941
	Kd 0.8941 0.8941 0.8941
	Ks 0.0000 0.0000 0.0000
	Ke 0.0000 0.0000 0.0000

newmtl _maket_v41bottom
	Ns 46.0000
	Ni 1.5000
	d 1.0000
	Tr 0.0000
	Tf 1.0000 1.0000 1.0000 
	illum 2
	Ka 0.7059 0.7059 0.7137
	Kd 0.4941 0.4980 0.5216
	Ks 0.1906 0.0339 0.1892
	Ke 0.0000 0.0000 0.0000

newmtl _maket_v4119___Default
	Ns 10.0000
	Ni 1.5000
	d 1.0000
	Tr 0.0000
	Tf 1.0000 1.0000 1.0000 
	illum 2
	Ka 0.7176 0.7176 0.7176
	Kd 0.7176 0.7176 0.7176
	Ks 0.0000 0.0000 0.0000
	Ke 0.0000 0.0000 0.0000

newmtl _maket_v4123___Default
	Ns 74.0000
	Ni 1.5000
	d 1.0000
	Tr 0.0000
	Tf 1.0000 1.0000 1.0000 
	illum 2
	Ka 0.0000 0.2275 0.0000
	Kd 0.0000 0.2275 0.0000
	Ks 0.4500 0.4500 0.4500
	Ke 0.0000 0.0000 0.0000

newmtl _maket_v4104___Default
	Ns 16.0000
	Ni 1.5000
	d 1.0000
	Tr 0.0000
	Tf 1.0000 1.0000 1.0000 
	illum 2
	Ka 0.0000 0.0000 0.0000
	Kd 0.0000 0.0000 0.0000
	Ks 0.0118 0.0118 0.0118
	Ke 0.0000 0.0000 0.0000
	map_Ka D:\leopold\a-work\Senya\export2\v.5\black.png
	map_Kd D:\leopold\a-work\Senya\export2\v.5\black.png

newmtl skull_logo
	Ns 10.0000
	Ni 1.5000
	d 1.0000
	Tr 0.0000
	Tf 1.0000 1.0000 1.0000 
	illum 2
	Ka 0.5882 0.5882 0.5882
	Kd 0.5882 0.5882 0.5882
	Ks 0.0000 0.0000 0.0000
	Ke 0.0000 0.0000 0.0000
	map_Ka D:\leopold\a-work\Senya\export2\v.5\2uk.png
	map_Kd D:\leopold\a-work\Senya\export2\v.5\2uk.png

newmtl black
	Ns 10.0000
	Ni 1.5000
	d 1.0000
	Tr 0.0000
	Tf 1.0000 1.0000 1.0000 
	illum 2
	Ka 0.0000 0.0000 0.0000
	Kd 0.0000 0.0000 0.0000
	Ks 0.0000 0.0000 0.0000
	Ke 0.0000 0.0000 0.0000
	map_Ka D:\leopold\a-work\Senya\export2\v.5\black.png
	map_Kd D:\leopold\a-work\Senya\export2\v.5\black.png
